{
    "photos": {
        "page": 1,
        "pages": 1527,
        "perpage": 100,
        "total": "152624",
        "photo": [{
            "id": "47090996434",
            "owner": "171502355@N07",
            "secret": "499cbe16a5",
            "server": "65535",
            "farm": 66,
            "title": "13Apr050064",
            "ispublic": 1,
            "isfriend": 0,
            "isfamily": 0
        }, {
            "id": "40914046313",
            "owner": "171502355@N07",
            "secret": "0beb26a280",
            "server": "65535",
            "farm": 66,
            "title": "13Apr050104",
            "ispublic": 1,
            "isfriend": 0,
            "isfamily": 0
        }, {
            "id": "47880482411",
            "owner": "171502355@N07",
            "secret": "4c5d9bfd1b",
            "server": "65535",
            "farm": 66,
            "title": "13Apr050105",
            "ispublic": 1,
            "isfriend": 0,
            "isfamily": 0
        }, {
            "id": "40914045863",
            "owner": "171502355@N07",
            "secret": "abe23a76d8",
            "server": "65535",
            "farm": 66,
            "title": "13Apr050106",
            "ispublic": 1,
            "isfriend": 0,
            "isfamily": 0
        }, {
            "id": "47828362902",
            "owner": "171502355@N07",
            "secret": "44b6c9d44e",
            "server": "65535",
            "farm": 66,
            "title": "DSCF0025",
            "ispublic": 1,
            "isfriend": 0,
            "isfamily": 0
        }, {
            "id": "47090993034",
            "owner": "171502355@N07",
            "secret": "4c24a75fd2",
            "server": "65535",
            "farm": 66,
            "title": "DSCF0027",
            "ispublic": 1,
            "isfriend": 0,
            "isfamily": 0
        }, {
            "id": "32936288127",
            "owner": "171502355@N07",
            "secret": "4af2f3f370",
            "server": "65535",
            "farm": 66,
            "title": "3April2005074358",
            "ispublic": 1,
            "isfriend": 0,
            "isfamily": 0
        }, {
            "id": "47090987944",
            "owner": "171502355@N07",
            "secret": "8f6c26e510",
            "server": "65535",
            "farm": 66,
            "title": "Untitled-TrueColor-02",
            "ispublic": 1,
            "isfriend": 0,
            "isfamily": 0
        }, {
            "id": "46964264235",
            "owner": "148513188@N07",
            "secret": "24128b22aa",
            "server": "65535",
            "farm": 66,
            "title": "Kitten",
            "ispublic": 1,
            "isfriend": 0,
            "isfamily": 0
        }, {
            "id": "34003225318",
            "owner": "23435017@N05",
            "secret": "a0d3e7094c",
            "server": "65535",
            "farm": 66,
            "title": "1-Pacific-Rim-100",
            "ispublic": 1,
            "isfriend": 0,
            "isfamily": 0
        }, {
            "id": "34003159378",
            "owner": "66280974@N03",
            "secret": "0a6babeaee",
            "server": "65535",
            "farm": 66,
            "title": "Issy & Finch",
            "ispublic": 1,
            "isfriend": 0,
            "isfamily": 0
        }, {
            "id": "47090866284",
            "owner": "112911918@N06",
            "secret": "e915e51f0b",
            "server": "65535",
            "farm": 66,
            "title": "20190506_194957",
            "ispublic": 1,
            "isfriend": 0,
            "isfamily": 0
        }, {
            "id": "47090835454",
            "owner": "23435017@N05",
            "secret": "2ef61ce135",
            "server": "65535",
            "farm": 66,
            "title": "2-PlayerOne-116",
            "ispublic": 1,
            "isfriend": 0,
            "isfamily": 0
        }, {
            "id": "47090833404",
            "owner": "23435017@N05",
            "secret": "c19047b772",
            "server": "65535",
            "farm": 66,
            "title": "2-PlayerOne-142",
            "ispublic": 1,
            "isfriend": 0,
            "isfamily": 0
        }, {
            "id": "34003097008",
            "owner": "128759513@N03",
            "secret": "fb3e0637da",
            "server": "65535",
            "farm": 66,
            "title": "Nu even niet",
            "ispublic": 1,
            "isfriend": 0,
            "isfamily": 0
        }, {
            "id": "34003096178",
            "owner": "128759513@N03",
            "secret": "5f1b595a7f",
            "server": "65535",
            "farm": 66,
            "title": "Fennek in Ausburg",
            "ispublic": 1,
            "isfriend": 0,
            "isfamily": 0
        }, {
            "id": "47090823104",
            "owner": "23435017@N05",
            "secret": "043da2068b",
            "server": "65535",
            "farm": 66,
            "title": "2-PlayerOne-133",
            "ispublic": 1,
            "isfriend": 0,
            "isfamily": 0
        }, {
            "id": "47090816234",
            "owner": "23435017@N05",
            "secret": "db27c5b381",
            "server": "65535",
            "farm": 66,
            "title": "2-PlayerOne-127",
            "ispublic": 1,
            "isfriend": 0,
            "isfamily": 0
        }, {
            "id": "46964067355",
            "owner": "23435017@N05",
            "secret": "ed0675297b",
            "server": "65535",
            "farm": 66,
            "title": "2-PlayerOne-126",
            "ispublic": 1,
            "isfriend": 0,
            "isfamily": 0
        }, {
            "id": "40913864763",
            "owner": "23435017@N05",
            "secret": "46a2f6d90d",
            "server": "65535",
            "farm": 66,
            "title": "2-PlayerOne-125",
            "ispublic": 1,
            "isfriend": 0,
            "isfamily": 0
        }, {
            "id": "47880263761",
            "owner": "166332247@N08",
            "secret": "782e3ae42c",
            "server": "65535",
            "farm": 66,
            "title": "",
            "ispublic": 1,
            "isfriend": 0,
            "isfamily": 0
        }, {
            "id": "47880068991",
            "owner": "159274695@N03",
            "secret": "4383ae4a55",
            "server": "65535",
            "farm": 66,
            "title": "IMG_8479",
            "ispublic": 1,
            "isfriend": 0,
            "isfamily": 0
        }, {
            "id": "46963961775",
            "owner": "162795320@N02",
            "secret": "1261d66caa",
            "server": "65535",
            "farm": 66,
            "title": "30-Grumpy-cat-Funny-Quotes-22-Grumpy-cat-Funny-memes",
            "ispublic": 1,
            "isfriend": 0,
            "isfamily": 0
        }, {
            "id": "47880066171",
            "owner": "51405371@N00",
            "secret": "97eefec10c",
            "server": "65535",
            "farm": 66,
            "title": "MEFHBZd+RZaIMKB0BVkhZQ",
            "ispublic": 1,
            "isfriend": 0,
            "isfamily": 0
        }, {
            "id": "34002813788",
            "owner": "24354425@N03",
            "secret": "34de986f39",
            "server": "65535",
            "farm": 66,
            "title": "Tigger's Pictures 4",
            "ispublic": 1,
            "isfriend": 0,
            "isfamily": 0
        }, {
            "id": "46963799585",
            "owner": "24354425@N03",
            "secret": "2480e92902",
            "server": "65535",
            "farm": 66,
            "title": "In Norio's Chigura",
            "ispublic": 1,
            "isfriend": 0,
            "isfamily": 0
        }, {
            "id": "32935761177",
            "owner": "99440592@N05",
            "secret": "9ea4b26b46",
            "server": "65535",
            "farm": 66,
            "title": "The Wanderer..",
            "ispublic": 1,
            "isfriend": 0,
            "isfamily": 0
        }, {
            "id": "34002751118",
            "owner": "119760755@N07",
            "secret": "9abb56b33c",
            "server": "65535",
            "farm": 66,
            "title": "F\u00fcsse & Katzen * Cats & Feet * Pies y Gatos *    .  DSC_2395-003",
            "ispublic": 1,
            "isfriend": 0,
            "isfamily": 0
        }, {
            "id": "34002740178",
            "owner": "76960832@N08",
            "secret": "e6263481fa",
            "server": "65535",
            "farm": 66,
            "title": "1I2A0174",
            "ispublic": 1,
            "isfriend": 0,
            "isfamily": 0
        }, {
            "id": "40913549363",
            "owner": "76960832@N08",
            "secret": "b1c44dfa26",
            "server": "65535",
            "farm": 66,
            "title": "1I2A0181",
            "ispublic": 1,
            "isfriend": 0,
            "isfamily": 0
        }, {
            "id": "47879933381",
            "owner": "76960832@N08",
            "secret": "dd2b85ba94",
            "server": "65535",
            "farm": 66,
            "title": "1I2A0213",
            "ispublic": 1,
            "isfriend": 0,
            "isfamily": 0
        }, {
            "id": "46963679305",
            "owner": "62609543@N04",
            "secret": "14405de489",
            "server": "65535",
            "farm": 66,
            "title": "Cuteness",
            "ispublic": 1,
            "isfriend": 0,
            "isfamily": 0
        }, {
            "id": "47827739172",
            "owner": "8575782@N02",
            "secret": "b956a01d6f",
            "server": "65535",
            "farm": 66,
            "title": "Community Bookstore Cat",
            "ispublic": 1,
            "isfriend": 0,
            "isfamily": 0
        }, {
            "id": "47827378092",
            "owner": "169492005@N07",
            "secret": "191447d84b",
            "server": "65535",
            "farm": 66,
            "title": "Black kitten.",
            "ispublic": 1,
            "isfriend": 0,
            "isfamily": 0
        }, {
            "id": "47090047454",
            "owner": "148935449@N04",
            "secret": "e71f09a559",
            "server": "65535",
            "farm": 66,
            "title": "Bellini Women's   Persian Kitten Heel Mule",
            "ispublic": 1,
            "isfriend": 0,
            "isfamily": 0
        }, {
            "id": "46963214875",
            "owner": "169492005@N07",
            "secret": "0d730c69c6",
            "server": "65535",
            "farm": 66,
            "title": "Tabby kittens.",
            "ispublic": 1,
            "isfriend": 0,
            "isfamily": 0
        }, {
            "id": "40912928303",
            "owner": "141724967@N04",
            "secret": "a47899d53b",
            "server": "65535",
            "farm": 66,
            "title": "ICY06176",
            "ispublic": 1,
            "isfriend": 0,
            "isfamily": 0
        }, {
            "id": "34002138718",
            "owner": "141724967@N04",
            "secret": "6068b6f990",
            "server": "65535",
            "farm": 66,
            "title": "ICY06179",
            "ispublic": 1,
            "isfriend": 0,
            "isfamily": 0
        }, {
            "id": "47827231572",
            "owner": "141724967@N04",
            "secret": "a124ea78f8",
            "server": "65535",
            "farm": 66,
            "title": "ICY06180",
            "ispublic": 1,
            "isfriend": 0,
            "isfamily": 0
        }, {
            "id": "47089911684",
            "owner": "141724967@N04",
            "secret": "1ec6b590cd",
            "server": "65535",
            "farm": 66,
            "title": "ICY06185",
            "ispublic": 1,
            "isfriend": 0,
            "isfamily": 0
        }, {
            "id": "47827231272",
            "owner": "141724967@N04",
            "secret": "145a6dae00",
            "server": "65535",
            "farm": 66,
            "title": "ICY06186",
            "ispublic": 1,
            "isfriend": 0,
            "isfamily": 0
        }, {
            "id": "47827231022",
            "owner": "141724967@N04",
            "secret": "837a8a1af7",
            "server": "65535",
            "farm": 66,
            "title": "ICY06250",
            "ispublic": 1,
            "isfriend": 0,
            "isfamily": 0
        }, {
            "id": "40912920073",
            "owner": "169492005@N07",
            "secret": "b042c773af",
            "server": "65535",
            "farm": 66,
            "title": "Calico kitten.",
            "ispublic": 1,
            "isfriend": 0,
            "isfamily": 0
        }, {
            "id": "32935075157",
            "owner": "148070962@N03",
            "secret": "ccb1c3c6e2",
            "server": "65535",
            "farm": 66,
            "title": "",
            "ispublic": 1,
            "isfriend": 0,
            "isfamily": 0
        }, {
            "id": "34002072558",
            "owner": "45320117@N07",
            "secret": "7e92938eb5",
            "server": "65535",
            "farm": 66,
            "title": "_1110341",
            "ispublic": 1,
            "isfriend": 0,
            "isfamily": 0
        }, {
            "id": "47089817524",
            "owner": "170087124@N07",
            "secret": "7f2da2aef3",
            "server": "65535",
            "farm": 66,
            "title": "Matching+Family+kitten+Cat+Shirt-CM_979XA6A",
            "ispublic": 1,
            "isfriend": 0,
            "isfamily": 0
        }, {
            "id": "47827033322",
            "owner": "10655856@N04",
            "secret": "3efaed0e42",
            "server": "65535",
            "farm": 66,
            "title": "Brigitte Bardot",
            "ispublic": 1,
            "isfriend": 0,
            "isfamily": 0
        }, {
            "id": "40912808163",
            "owner": "38941615@N02",
            "secret": "62dc1c9473",
            "server": "65535",
            "farm": 66,
            "title": "Street cat - Gata callejera",
            "ispublic": 1,
            "isfriend": 0,
            "isfamily": 0
        }, {
            "id": "46962976535",
            "owner": "170087124@N07",
            "secret": "a3dd1a54f8",
            "server": "65535",
            "farm": 66,
            "title": "Best+Cat+Dad+T+Shirt+Funny+Gift+Men+Fathers+Day-CM_97HA81P",
            "ispublic": 1,
            "isfriend": 0,
            "isfamily": 0
        }, {
            "id": "47089679264",
            "owner": "143537090@N02",
            "secret": "a91f008955",
            "server": "65535",
            "farm": 66,
            "title": "Red Tabby Cat",
            "ispublic": 1,
            "isfriend": 0,
            "isfamily": 0
        }, {
            "id": "40912648333",
            "owner": "155724623@N08",
            "secret": "d3c6e2ffa7",
            "server": "65535",
            "farm": 66,
            "title": "IMG_4872",
            "ispublic": 1,
            "isfriend": 0,
            "isfamily": 0
        }, {
            "id": "47824908062",
            "owner": "76037102@N05",
            "secret": "8c83273779",
            "server": "65535",
            "farm": 66,
            "title": "Possum",
            "ispublic": 1,
            "isfriend": 0,
            "isfamily": 0
        }, {
            "id": "46960813675",
            "owner": "76037102@N05",
            "secret": "1f758671d5",
            "server": "65535",
            "farm": 66,
            "title": "Possum",
            "ispublic": 1,
            "isfriend": 0,
            "isfamily": 0
        }, {
            "id": "40910668843",
            "owner": "76037102@N05",
            "secret": "891b3d6eef",
            "server": "65535",
            "farm": 66,
            "title": "Possum",
            "ispublic": 1,
            "isfriend": 0,
            "isfamily": 0
        }, {
            "id": "47878820041",
            "owner": "8740272@N04",
            "secret": "1be8e13188",
            "server": "65535",
            "farm": 66,
            "title": "Catherine Deneuve \u2665",
            "ispublic": 1,
            "isfriend": 0,
            "isfamily": 0
        }, {
            "id": "47089329844",
            "owner": "29208923@N06",
            "secret": "60d4aebbb8",
            "server": "65535",
            "farm": 66,
            "title": "DSC_9862",
            "ispublic": 1,
            "isfriend": 0,
            "isfamily": 0
        }, {
            "id": "34001372068",
            "owner": "90745513@N03",
            "secret": "9b7ccfd436",
            "server": "65535",
            "farm": 66,
            "title": "Dancing Kitten",
            "ispublic": 1,
            "isfriend": 0,
            "isfamily": 0
        }, {
            "id": "32934338047",
            "owner": "152318930@N05",
            "secret": "43e9a57528",
            "server": "65535",
            "farm": 66,
            "title": "Sensual Kitten",
            "ispublic": 1,
            "isfriend": 0,
            "isfamily": 0
        }, {
            "id": "40912027863",
            "owner": "37911116@N04",
            "secret": "eb01b7c1b4",
            "server": "65535",
            "farm": 66,
            "title": "IMG_9032 very timid ,,,   poor street cats :(",
            "ispublic": 1,
            "isfriend": 0,
            "isfamily": 0
        }, {
            "id": "34000975608",
            "owner": "69587626@N00",
            "secret": "04f2b845b9",
            "server": "65535",
            "farm": 66,
            "title": "Remembering Kitten",
            "ispublic": 1,
            "isfriend": 0,
            "isfamily": 0
        }, {
            "id": "40911249503",
            "owner": "150352073@N07",
            "secret": "ac1c625fac",
            "server": "65535",
            "farm": 66,
            "title": "Kewpie: Babysitter",
            "ispublic": 1,
            "isfriend": 0,
            "isfamily": 0
        }, {
            "id": "46961370625",
            "owner": "150352073@N07",
            "secret": "6d6daeb9ea",
            "server": "65535",
            "farm": 66,
            "title": "Lazy Caturday",
            "ispublic": 1,
            "isfriend": 0,
            "isfamily": 0
        }, {
            "id": "47087909494",
            "owner": "40595948@N00",
            "secret": "9ff2147b00",
            "server": "65535",
            "farm": 66,
            "title": "Dot's Beach Week",
            "ispublic": 1,
            "isfriend": 0,
            "isfamily": 0
        }, {
            "id": "34000006238",
            "owner": "24658593@N07",
            "secret": "a5da51af35",
            "server": "65535",
            "farm": 66,
            "title": "Maine coon B&W",
            "ispublic": 1,
            "isfriend": 0,
            "isfamily": 0
        }, {
            "id": "46960652355",
            "owner": "49998540@N03",
            "secret": "6a0dbb5002",
            "server": "65535",
            "farm": 66,
            "title": "\u305d\u3075\u3041\u30fc\u306e\u3046\u3048\u306d\u3053 #\u306d\u3053 #\u732b #cat #gatto #chat #kitten",
            "ispublic": 1,
            "isfriend": 0,
            "isfamily": 0
        }, {
            "id": "47876405581",
            "owner": "96580860@N08",
            "secret": "820e06ca09",
            "server": "65535",
            "farm": 66,
            "title": "Kitten just woke up! :0",
            "ispublic": 1,
            "isfriend": 0,
            "isfamily": 0
        }, {
            "id": "46960182965",
            "owner": "96580860@N08",
            "secret": "e9b9c0ca68",
            "server": "65535",
            "farm": 66,
            "title": "Kitten takes a nap :)",
            "ispublic": 1,
            "isfriend": 0,
            "isfamily": 0
        }, {
            "id": "33999140768",
            "owner": "54975533@N08",
            "secret": "b18251ebd7",
            "server": "65535",
            "farm": 66,
            "title": "IMG_1002",
            "ispublic": 1,
            "isfriend": 0,
            "isfamily": 0
        }, {
            "id": "47876429071",
            "owner": "10259875@N03",
            "secret": "e1f1ee9f95",
            "server": "65535",
            "farm": 66,
            "title": "That's My Girl!",
            "ispublic": 1,
            "isfriend": 0,
            "isfamily": 0
        }, {
            "id": "40909992053",
            "owner": "50946698@N04",
            "secret": "20b66d994e",
            "server": "65535",
            "farm": 66,
            "title": "Caterwolds at the Beach 3",
            "ispublic": 1,
            "isfriend": 0,
            "isfamily": 0
        }, {
            "id": "40909988403",
            "owner": "25101853@N00",
            "secret": "4f94aaf292",
            "server": "65535",
            "farm": 66,
            "title": "IMG_4718",
            "ispublic": 1,
            "isfriend": 0,
            "isfamily": 0
        }, {
            "id": "33999118448",
            "owner": "26804569@N04",
            "secret": "5e883fa76d",
            "server": "65535",
            "farm": 66,
            "title": "Chappie 05-18-19",
            "ispublic": 1,
            "isfriend": 0,
            "isfamily": 0
        }, {
            "id": "47824204312",
            "owner": "26804569@N04",
            "secret": "4d6cc75fc4",
            "server": "65535",
            "farm": 66,
            "title": "Chappie 05-18-19",
            "ispublic": 1,
            "isfriend": 0,
            "isfamily": 0
        }, {
            "id": "33999117858",
            "owner": "26804569@N04",
            "secret": "b624b69b86",
            "server": "65535",
            "farm": 66,
            "title": "Chappie 05-18-19",
            "ispublic": 1,
            "isfriend": 0,
            "isfamily": 0
        }, {
            "id": "47824204072",
            "owner": "26804569@N04",
            "secret": "a3d0b21040",
            "server": "65535",
            "farm": 66,
            "title": "Chappie 05-18-19",
            "ispublic": 1,
            "isfriend": 0,
            "isfamily": 0
        }, {
            "id": "33999117518",
            "owner": "26804569@N04",
            "secret": "79e8b976d5",
            "server": "65535",
            "farm": 66,
            "title": "Chappie 05-18-19",
            "ispublic": 1,
            "isfriend": 0,
            "isfamily": 0
        }, {
            "id": "47824203852",
            "owner": "26804569@N04",
            "secret": "eea559d16e",
            "server": "65535",
            "farm": 66,
            "title": "Chappie 05-18-19",
            "ispublic": 1,
            "isfriend": 0,
            "isfamily": 0
        }, {
            "id": "32932164697",
            "owner": "26804569@N04",
            "secret": "6b92a2ca59",
            "server": "65535",
            "farm": 66,
            "title": "Chappie 05-18-19",
            "ispublic": 1,
            "isfriend": 0,
            "isfamily": 0
        }, {
            "id": "47824203442",
            "owner": "26804569@N04",
            "secret": "07599f1777",
            "server": "65535",
            "farm": 66,
            "title": "Chappie 05-18-19",
            "ispublic": 1,
            "isfriend": 0,
            "isfamily": 0
        }, {
            "id": "32932164057",
            "owner": "26804569@N04",
            "secret": "b4167f4bf1",
            "server": "65535",
            "farm": 66,
            "title": "Chappie 05-18-19",
            "ispublic": 1,
            "isfriend": 0,
            "isfamily": 0
        }, {
            "id": "47824203032",
            "owner": "26804569@N04",
            "secret": "3f27fcb548",
            "server": "65535",
            "farm": 66,
            "title": "Chappie 05-18-19",
            "ispublic": 1,
            "isfriend": 0,
            "isfamily": 0
        }, {
            "id": "32932163687",
            "owner": "26804569@N04",
            "secret": "6753253923",
            "server": "65535",
            "farm": 66,
            "title": "Chappie 05-18-19",
            "ispublic": 1,
            "isfriend": 0,
            "isfamily": 0
        }, {
            "id": "32932163727",
            "owner": "26804569@N04",
            "secret": "bb8991bafe",
            "server": "65535",
            "farm": 66,
            "title": "Chappie 05-18-19",
            "ispublic": 1,
            "isfriend": 0,
            "isfamily": 0
        }, {
            "id": "32932163427",
            "owner": "26804569@N04",
            "secret": "0fa2ef915a",
            "server": "65535",
            "farm": 66,
            "title": "Chappie 05-18-19",
            "ispublic": 1,
            "isfriend": 0,
            "isfamily": 0
        }, {
            "id": "47086956864",
            "owner": "26804569@N04",
            "secret": "aa5de25541",
            "server": "65535",
            "farm": 66,
            "title": "Chappie 05.17.19",
            "ispublic": 1,
            "isfriend": 0,
            "isfamily": 0
        }, {
            "id": "33999098958",
            "owner": "26804569@N04",
            "secret": "86f09a4e41",
            "server": "65535",
            "farm": 66,
            "title": "Chappie 05.17.19",
            "ispublic": 1,
            "isfriend": 0,
            "isfamily": 0
        }, {
            "id": "47086956454",
            "owner": "26804569@N04",
            "secret": "966ec0de0e",
            "server": "65535",
            "farm": 66,
            "title": "Chappie 05.17.19",
            "ispublic": 1,
            "isfriend": 0,
            "isfamily": 0
        }, {
            "id": "33999098448",
            "owner": "26804569@N04",
            "secret": "a9a7de9f1f",
            "server": "65535",
            "farm": 66,
            "title": "Chappie 05.17.19",
            "ispublic": 1,
            "isfriend": 0,
            "isfamily": 0
        }, {
            "id": "47086956104",
            "owner": "26804569@N04",
            "secret": "50b0f5ed28",
            "server": "65535",
            "farm": 66,
            "title": "Chappie 05.17.19",
            "ispublic": 1,
            "isfriend": 0,
            "isfamily": 0
        }, {
            "id": "33999097918",
            "owner": "26804569@N04",
            "secret": "bbd1074aff",
            "server": "65535",
            "farm": 66,
            "title": "Chappie 05.17.19",
            "ispublic": 1,
            "isfriend": 0,
            "isfamily": 0
        }, {
            "id": "47086955714",
            "owner": "26804569@N04",
            "secret": "2fcb42c9ab",
            "server": "65535",
            "farm": 66,
            "title": "Chappie 05.17.19",
            "ispublic": 1,
            "isfriend": 0,
            "isfamily": 0
        }, {
            "id": "33999097448",
            "owner": "26804569@N04",
            "secret": "861cdd68e2",
            "server": "65535",
            "farm": 66,
            "title": "Chappie 05.17.19",
            "ispublic": 1,
            "isfriend": 0,
            "isfamily": 0
        }, {
            "id": "47086955384",
            "owner": "26804569@N04",
            "secret": "30760bc914",
            "server": "65535",
            "farm": 66,
            "title": "Chappie 05.17.19",
            "ispublic": 1,
            "isfriend": 0,
            "isfamily": 0
        }, {
            "id": "47086928974",
            "owner": "26804569@N04",
            "secret": "6d73982920",
            "server": "65535",
            "farm": 66,
            "title": "Chappie 05.13.19",
            "ispublic": 1,
            "isfriend": 0,
            "isfamily": 0
        }, {
            "id": "40909907263",
            "owner": "26804569@N04",
            "secret": "53aac06653",
            "server": "65535",
            "farm": 66,
            "title": "Chappie 05.13.19",
            "ispublic": 1,
            "isfriend": 0,
            "isfamily": 0
        }, {
            "id": "47086928144",
            "owner": "26804569@N04",
            "secret": "82f9568a94",
            "server": "65535",
            "farm": 66,
            "title": "Chappie 05.13.19",
            "ispublic": 1,
            "isfriend": 0,
            "isfamily": 0
        }, {
            "id": "32932021067",
            "owner": "144768632@N06",
            "secret": "f039550fae",
            "server": "65535",
            "farm": 66,
            "title": "Luna and Kitten",
            "ispublic": 1,
            "isfriend": 0,
            "isfamily": 0
        }, {
            "id": "33998863848",
            "owner": "170087124@N07",
            "secret": "d26285983a",
            "server": "65535",
            "farm": 66,
            "title": "My+cat+and+I+talk+shit+about+you+shirt-CM_9781F1D",
            "ispublic": 1,
            "isfriend": 0,
            "isfamily": 0
        }, {
            "id": "32931839617",
            "owner": "170087124@N07",
            "secret": "10b01e9a05",
            "server": "65535",
            "farm": 66,
            "title": "Best+Cats+Family+Tree+T+Shirts-CM_96TTYDJ",
            "ispublic": 1,
            "isfriend": 0,
            "isfamily": 0
        }, {
            "id": "47823731682",
            "owner": "41569704@N00",
            "secret": "84abb5d716",
            "server": "65535",
            "farm": 66,
            "title": "Ellen: It's still too cold",
            "ispublic": 1,
            "isfriend": 0,
            "isfamily": 0
        }]
    },
    "stat": "ok"
}
